^C:\USERS\ADMINISTRADOR\DESKTOP\PROJECTOINCLUIRSDL\PROJECTOINCLUIRSDL\MAIN.CPP
C:\USERS\ADMINISTRADOR\DESKTOP\PROJECTOINCLUIRSDL\PROJECTOINCLUIRSDL\X64\RELEASE\VC140.PDB
C:\USERS\ADMINISTRADOR\DESKTOP\PROJECTOINCLUIRSDL\PROJECTOINCLUIRSDL\X64\RELEASE\MAIN.OBJ
