^C:\USERS\KURONEKO\DESKTOP\PROJECTOINCLUIRSDL\PROJECTOINCLUIRSDL\MAIN.CPP
C:\USERS\KURONEKO\DESKTOP\PROJECTOINCLUIRSDL\PROJECTOINCLUIRSDL\DEBUG\VC140.PDB
C:\USERS\KURONEKO\DESKTOP\PROJECTOINCLUIRSDL\PROJECTOINCLUIRSDL\DEBUG\VC140.IDB
C:\USERS\KURONEKO\DESKTOP\PROJECTOINCLUIRSDL\PROJECTOINCLUIRSDL\DEBUG\MAIN.OBJ
