^C:\USERS\ADMINISTRADOR\DESKTOP\PROJECTOINCLUIRSDL\PROJECTOINCLUIRSDL\DEBUG\MAIN.OBJ
/OUT:"C:\USERS\ADMINISTRADOR\DESKTOP\PROJECTOINCLUIRSDL\DEBUG\PROJECTOINCLUIRSDL.EXE" /INCREMENTAL /NOLOGO /LIBPATH:"C:\USERS\ADMINISTRADOR\DESKTOP\PROJECTOINCLUIRSDL\SDL2_IMAGE-DEVEL-2.0.3-VC\SDL2_IMAGE-2.0.3\LIB\X86" /LIBPATH:"C:\USERS\ADMINISTRADOR\DESKTOP\PROJECTOINCLUIRSDL\SDL2-DEVEL-2.0.8-VC\SDL2-2.0.8\LIB\X86" SDL2.LIB SDL2MAIN.LIB SDL2_IMAGE.LIB /MANIFEST /MANIFESTUAC:"level='asInvoker' uiAccess='false'" /manifest:embed /DEBUG:FASTLINK /PDB:"C:\USERS\ADMINISTRADOR\DESKTOP\PROJECTOINCLUIRSDL\DEBUG\PROJECTOINCLUIRSDL.PDB" /SUBSYSTEM:CONSOLE /TLBID:1 /DYNAMICBASE /NXCOMPAT /IMPLIB:"C:\USERS\ADMINISTRADOR\DESKTOP\PROJECTOINCLUIRSDL\DEBUG\PROJECTOINCLUIRSDL.LIB" /MACHINE:X86 DEBUG\MAIN.OBJ
^C:\USERS\KURONEKO\DESKTOP\PROJECTOINCLUIRSDL\PROJECTOINCLUIRSDL\DEBUG\MAIN.OBJ
/OUT:"C:\USERS\KURONEKO\DESKTOP\PROJECTOINCLUIRSDL\DEBUG\PROJECTOINCLUIRSDL.EXE" /INCREMENTAL /NOLOGO /LIBPATH:"C:\USERS\KURONEKO\DESKTOP\PROJECTOINCLUIRSDL\\SDL2-DEVEL-2.0.8-VC\SDL2-2.0.8\LIB\X86" /LIBPATH:"C:\USERS\KURONEKO\DESKTOP\PROJECTOINCLUIRSDL\\SDL2_IMAGE-DEVEL-2.0.3-VC\SDL2_IMAGE-2.0.3\LIB\X86" SDL2.LIB SDL2MAIN.LIB SDL2_IMAGE.LIB /MANIFEST /MANIFESTUAC:"level='asInvoker' uiAccess='false'" /manifest:embed /DEBUG:FASTLINK /PDB:"C:\USERS\KURONEKO\DESKTOP\PROJECTOINCLUIRSDL\DEBUG\PROJECTOINCLUIRSDL.PDB" /SUBSYSTEM:CONSOLE /TLBID:1 /DYNAMICBASE /NXCOMPAT /IMPLIB:"C:\USERS\KURONEKO\DESKTOP\PROJECTOINCLUIRSDL\DEBUG\PROJECTOINCLUIRSDL.LIB" /MACHINE:X86 DEBUG\MAIN.OBJ
