^C:\USERS\ADMINISTRADOR\DOWNLOADS\PEREZLOGUZZOALEJO_2018041702435701\PROJECTOINCLUIRSDL\PROJECTOINCLUIRSDL\RELEASE\MAIN.OBJ
C:\USERS\ADMINISTRADOR\DOWNLOADS\PEREZLOGUZZOALEJO_2018041702435701\PROJECTOINCLUIRSDL\RELEASE\PROJECTOINCLUIRSDL.EXE
C:\USERS\ADMINISTRADOR\DOWNLOADS\PEREZLOGUZZOALEJO_2018041702435701\PROJECTOINCLUIRSDL\RELEASE\PROJECTOINCLUIRSDL.IPDB
C:\USERS\ADMINISTRADOR\DOWNLOADS\PEREZLOGUZZOALEJO_2018041702435701\PROJECTOINCLUIRSDL\RELEASE\PROJECTOINCLUIRSDL.IOBJ
C:\USERS\ADMINISTRADOR\DOWNLOADS\PEREZLOGUZZOALEJO_2018041702435701\PROJECTOINCLUIRSDL\RELEASE\PROJECTOINCLUIRSDL.PDB
